<svg width="40" height="40" viewBox="0 0 40 40" fill="none" xmlns="http://www.w3.org/2000/svg">
<path d="M20 39.375C30.7005 39.375 39.375 30.7005 39.375 20C39.375 9.29948 30.7005 0.625 20 0.625C9.29948 0.625 0.625 9.29948 0.625 20C0.625 30.7005 9.29948 39.375 20 39.375Z" fill="#FAFAFA"/>
<path fill-rule="evenodd" clip-rule="evenodd" d="M20 0.937288C9.47196 0.937288 0.937288 9.47195 0.937288 20C0.937288 30.528 9.47196 39.0627 20 39.0627C30.528 39.0627 39.0627 30.528 39.0627 20C39.0627 9.47195 30.528 0.937288 20 0.937288ZM0 20C0 8.9543 8.95431 0 20 0C31.0457 0 40 8.9543 40 20C40 31.0457 31.0457 40 20 40C8.95431 40 0 31.0457 0 20Z" fill="#002A3A"/>
<path d="M9.375 23.75V17.5C8.33904 17.5 7.5 18.4943 7.5 19.722V21.528C7.5 22.7557 8.33904 23.75 9.375 23.75Z" fill="#002A3A"/>
<path d="M30.625 23.75V17.5C31.661 17.5 32.5 18.4943 32.5 19.722V21.528C32.5 22.7557 31.661 23.75 30.625 23.75Z" fill="#002A3A"/>
<path d="M19.6927 7.91031C25.1588 7.91031 29.5962 12.3311 29.5962 17.7768V24.1336C29.5962 27.1464 27.1437 29.5897 24.1196 29.5897H15.2761C12.2521 29.5897 9.79958 27.1464 9.79958 24.1336V17.7768C9.79958 12.3311 14.2265 7.91031 19.6927 7.91031ZM19.6927 6.875C13.655 6.875 8.75 11.7617 8.75 17.7768V24.1336C8.75 27.7158 11.6701 30.625 15.2657 30.625H24.1093C27.7049 30.625 30.625 27.7158 30.625 24.1336V17.7768C30.6354 11.772 25.7304 6.875 19.6927 6.875Z" fill="#002A3A"/>
<path d="M24.0472 29.375C26.9891 29.375 29.375 26.9801 29.375 24.027V17.7961C29.375 12.4582 25.0581 8.125 19.7404 8.125C16.4952 8.125 13.624 9.73854 11.875 12.2147C13.6543 11.3521 17.9206 9.11951 20.9536 10.1648C26.8273 12.2045 27.353 17.1568 27.3834 19.8054C27.4137 22.454 27.1306 26.29 25.412 27.1526C23.6832 28.0152 15.8279 27.0105 14.089 27.6904C13.4117 27.9543 13.1387 28.3805 13.0477 28.7864C13.7655 29.1517 14.5844 29.3547 15.4437 29.3547H24.0472V29.375Z" fill="#DBDBDB"/>
<path d="M21.5522 30.7898V32.3352H17.8228V30.7898H21.5522ZM22.5 30H21.5522H17.8228H16.875V30.7898V32.3352V33.125H17.8228H21.5522H22.5V32.3352V30.7898V30Z" fill="#002A3A"/>
<path d="M11.25 37.3453C11.25 37.3453 12.9009 33.3284 17.7403 33.218L21.7232 33.1276C23.0027 33.0975 24.2718 33.3284 25.4275 33.8506C26.6863 34.413 28.038 35.3871 28.75 37.0742C28.75 37.0742 21.8676 42.0652 11.25 37.3453Z" fill="#DBDBDB"/>
<path fill-rule="evenodd" clip-rule="evenodd" d="M25.2719 34.1633C24.1816 33.6492 22.9783 33.4191 21.7573 33.4491L17.7549 33.5438C17.7549 33.5438 17.7549 33.5438 17.7549 33.5438C15.47 33.5983 13.9499 34.6099 12.9938 35.6081C12.5134 36.1096 12.1756 36.6081 11.9586 36.9799C11.9197 37.0465 11.8848 37.1088 11.8538 37.1663C16.891 39.392 21.0268 39.3006 23.9144 38.6503C25.403 38.315 26.5649 37.83 27.3512 37.4312C27.7299 37.2392 28.0211 37.0674 28.2192 36.9423C27.5334 35.5317 26.3817 34.6807 25.2737 34.1642L25.2728 34.1638L25.2719 34.1633ZM28.8066 37.1142C29.085 37.4937 29.0847 37.4939 29.0845 37.4941L29.0838 37.4946L29.082 37.496L29.0764 37.5001C29.0718 37.5035 29.0656 37.5081 29.0577 37.5139C29.0418 37.5254 29.0192 37.5416 28.99 37.562C28.9315 37.6027 28.8466 37.6602 28.7358 37.7306C28.5143 37.8714 28.1895 38.064 27.7675 38.278C26.9238 38.7059 25.69 39.2199 24.1162 39.5743C20.9622 40.2847 16.4621 40.3494 11.029 37.829L10.625 37.6416L10.7899 37.2228L11.2226 37.3986C10.7899 37.2228 10.79 37.2226 10.7901 37.2223L10.7904 37.2217L10.7909 37.2203L10.7925 37.2163C10.7938 37.2131 10.7955 37.2089 10.7977 37.2037C10.802 37.1933 10.8079 37.179 10.8157 37.1611C10.8312 37.1252 10.8537 37.0747 10.8837 37.0116C10.9437 36.8854 11.0337 36.7084 11.1569 36.4973C11.4029 36.0758 11.7837 35.5141 12.3258 34.9481C13.4148 33.8113 15.1554 32.659 17.7331 32.5976L21.7347 32.5029C21.7348 32.5029 21.7349 32.5029 21.735 32.5029C23.0848 32.4697 24.4315 32.7238 25.6634 33.3044C26.9958 33.9258 28.4634 35.02 29.2376 36.9345L29.375 37.2742L29.085 37.4937L28.8066 37.1142Z" fill="#002A3A"/>
</svg>
