<svg width="120" height="120" viewBox="0 0 120 120" fill="none" xmlns="http://www.w3.org/2000/svg">
<path d="M60 118.125C92.1016 118.125 118.125 92.1016 118.125 60C118.125 27.8984 92.1016 1.875 60 1.875C27.8985 1.875 1.875 27.8984 1.875 60C1.875 92.1016 27.8985 118.125 60 118.125Z" fill="#FAFAFA"/>
<path fill-rule="evenodd" clip-rule="evenodd" d="M60 2.81186C28.4159 2.81186 2.81186 28.4159 2.81186 60C2.81186 91.5841 28.4159 117.188 60 117.188C91.5841 117.188 117.188 91.5841 117.188 60C117.188 28.4159 91.5841 2.81186 60 2.81186ZM0 60C0 26.8629 26.8629 0 60 0C93.1371 0 120 26.8629 120 60C120 93.1371 93.1371 120 60 120C26.8629 120 0 93.1371 0 60Z" fill="#002738"/>
<path d="M28.125 71.25V52.5C25.0171 52.5 22.5 55.483 22.5 59.166V64.584C22.5 68.267 25.0171 71.25 28.125 71.25Z" fill="#002738"/>
<path d="M91.875 71.25V52.5C94.9829 52.5 97.5 55.483 97.5 59.166V64.584C97.5 68.267 94.9829 71.25 91.875 71.25Z" fill="#002738"/>
<path d="M26.25 58.125H24.375V23.5487C24.375 22.9627 24.7826 22.5 25.2989 22.5C25.8152 22.5 26.2228 22.9627 26.2228 23.5487V58.125H26.25Z" fill="#002738"/>
<path d="M59.0781 23.7309C75.4765 23.7309 88.7886 36.9932 88.7886 53.3304V72.4008C88.7886 81.4391 81.4311 88.7691 72.3589 88.7691H45.8284C36.7562 88.7691 29.3988 81.4391 29.3988 72.4008V53.3304C29.3988 36.9932 42.6796 23.7309 59.0781 23.7309ZM59.0781 20.625C40.965 20.625 26.25 35.285 26.25 53.3304V72.4008C26.25 83.1473 35.0104 91.875 45.7972 91.875H72.3278C83.1146 91.875 91.8749 83.1473 91.8749 72.4008V53.3304C91.9061 35.316 77.1912 20.625 59.0781 20.625Z" fill="#002738"/>
<path d="M72.1415 88.125C80.9673 88.125 88.125 80.9402 88.125 72.081V53.3883C88.125 37.3746 75.1744 24.375 59.2212 24.375C49.4855 24.375 40.872 29.2156 35.625 36.644C40.963 34.0562 53.7619 27.3585 62.8607 30.4943C80.482 36.6135 82.0591 51.4703 82.1501 59.4162C82.2411 67.3621 81.3919 78.87 76.2359 81.4577C71.0496 84.0455 47.4838 81.0315 42.2671 83.0713C40.235 83.8628 39.4162 85.1415 39.1432 86.3592C41.2966 87.4552 43.7533 88.0641 46.3312 88.0641H72.1415V88.125Z" fill="#DBDBDB"/>
<path d="M74.9395 65.625H45.0605C39.871 65.625 35.625 61.4375 35.625 56.25C35.625 51.0938 39.8395 46.875 45.0605 46.875H74.9395C80.129 46.875 84.375 51.0625 84.375 56.25C84.375 61.4375 80.1605 65.625 74.9395 65.625Z" fill="#002738"/>
<path d="M50.625 60C53.7316 60 56.25 57.9013 56.25 55.3125C56.25 52.7237 53.7316 50.625 50.625 50.625C47.5184 50.625 45 52.7237 45 55.3125C45 57.9013 47.5184 60 50.625 60Z" fill="#73B5CA"/>
<path d="M49.6875 56.25C51.2408 56.25 52.5 54.9908 52.5 53.4375C52.5 51.8842 51.2408 50.625 49.6875 50.625C48.1342 50.625 46.875 51.8842 46.875 53.4375C46.875 54.9908 48.1342 56.25 49.6875 56.25Z" fill="white"/>
<path d="M68.4375 60C71.0263 60 73.125 57.9013 73.125 55.3125C73.125 52.7237 71.0263 50.625 68.4375 50.625C65.8487 50.625 63.75 52.7237 63.75 55.3125C63.75 57.9013 65.8487 60 68.4375 60Z" fill="#73B5CA"/>
<path d="M67.5 56.25C68.5355 56.25 69.375 54.9908 69.375 53.4375C69.375 51.8842 68.5355 50.625 67.5 50.625C66.4645 50.625 65.625 51.8842 65.625 53.4375C65.625 54.9908 66.4645 56.25 67.5 56.25Z" fill="white"/>
<path d="M64.6566 92.3695V97.0055H53.4684V92.3695H64.6566ZM67.5 90H64.6566H53.4684H50.625V92.3695V97.0055V99.375H53.4684H64.6566H67.5V97.0055V92.3695V90Z" fill="#002738"/>
<path d="M72.3891 75H45.7359C45.32 75 45 74.8144 45 74.573V73.552C45 73.3106 45.32 73.125 45.7359 73.125H72.3891C72.805 73.125 73.125 73.3106 73.125 73.552V74.573C73.125 74.8144 72.805 75 72.3891 75Z" fill="#002738"/>
<path d="M33.75 112.036C33.75 112.036 38.7028 99.9853 53.2208 99.6539L65.1695 99.3828C69.008 99.2924 72.8154 99.9853 76.2824 101.552C80.059 103.239 84.1141 106.161 86.25 111.223C86.25 111.223 65.6029 126.196 33.75 112.036Z" fill="#DBDBDB"/>
<path fill-rule="evenodd" clip-rule="evenodd" d="M75.8157 102.49C72.5449 100.948 68.9349 100.257 65.2719 100.347L53.2648 100.632C53.2647 100.632 53.2648 100.632 53.2648 100.632C46.4101 100.795 41.8497 103.83 38.9814 106.824C37.5403 108.329 36.5267 109.824 35.8757 110.94C35.7592 111.139 35.6545 111.327 35.5613 111.499C50.673 118.176 63.0803 117.902 71.7433 115.951C76.2091 114.945 79.6947 113.49 82.0536 112.294C83.1897 111.718 84.0632 111.202 84.6577 110.827C82.6003 106.595 79.145 104.042 75.8212 102.493L75.8184 102.491L75.8157 102.49ZM86.4197 111.343C87.2549 112.481 87.2542 112.482 87.2534 112.482L87.2514 112.484L87.2459 112.488L87.2292 112.5C87.2155 112.511 87.1968 112.524 87.173 112.542C87.1254 112.576 87.0576 112.625 86.97 112.686C86.7946 112.808 86.5397 112.981 86.2074 113.192C85.5429 113.614 84.5684 114.192 83.3025 114.834C80.7713 116.118 77.0699 117.66 72.3485 118.723C62.8865 120.854 49.3862 121.048 33.0869 113.487L31.875 112.925L32.3698 111.668L33.6677 112.196C32.3698 111.668 32.3701 111.668 32.3704 111.667L32.3711 111.665L32.3728 111.661L32.3776 111.649C32.3815 111.639 32.3866 111.627 32.393 111.611C32.4059 111.58 32.4238 111.537 32.4471 111.483C32.4935 111.376 32.5612 111.224 32.6512 111.035C32.8312 110.656 33.1011 110.125 33.4707 109.492C34.2087 108.227 35.3511 106.542 36.9775 104.844C40.2444 101.434 45.4663 97.9771 53.1992 97.7929L65.2042 97.5086C65.2045 97.5086 65.2047 97.5086 65.2049 97.5086C69.2544 97.4092 73.2946 98.1714 76.9901 99.9133C80.9873 101.777 85.3902 105.06 87.7128 110.803L88.125 111.823L87.2549 112.481L86.4197 111.343Z" fill="#002738"/>
</svg>
